{
  "!gfx bai" : {"supporter": false, "cost": 0, "friendly": "Annnnnd, BAI! [Free]", "personal": null},
  "!gfx duck" : {"supporter": false, "cost": 50, "friendly": "TAKE COVER!", "personal": null},
  "!gfx facepalm" : {"supporter": false, "cost": 50, "friendly": "The usual respond to my play.", "personal": null},
  "!gfx fu" : {"supporter": false, "cost": 20, "friendly": "My usual response to chat.", "personal": null},
  "!gfx goodjob" : {"supporter": false, "cost": 100, "friendly": "Why thank you.", "personal": null},
  "!gfx nope" : {"supporter": false, "cost": 10, "friendly": "I mean... I had to.", "personal": null},
  "!gfx roger" : {"supporter": false, "cost": 10, "friendly": "Get baited nerds.", "personal": null},
  "!gfx sup" : {"supporter": false, "cost": 0, "friendly": "Say Hi! [Free]", "personal": null}
}
